<svg width="27" height="27" viewBox="0 0 27 27" fill="none" xmlns="http://www.w3.org/2000/svg">
<g id="ig">
<g id="Oval Copy">
<circle cx="13.5" cy="13.5" r="13.5" fill="#13A538"/>
</g>
<path id="Shape" fill-rule="evenodd" clip-rule="evenodd" d="M13.5 7C11.7342 7 11.5137 7.00813 10.8204 7.039C10.1281 7.0715 9.65687 7.18037 9.2425 7.34125C8.81512 7.507 8.45221 7.72962 8.09092 8.09092C7.72962 8.45221 7.50646 8.81458 7.34125 9.2425C7.18037 9.65687 7.07096 10.1281 7.039 10.8204C7.0065 11.5137 7 11.7342 7 13.5C7 15.2658 7.00813 15.4863 7.039 16.1796C7.0715 16.8713 7.18037 17.3431 7.34125 17.7575C7.507 18.1843 7.72962 18.5478 8.09092 18.9091C8.45221 19.2698 8.81458 19.4935 9.2425 19.6587C9.65742 19.8191 10.1287 19.929 10.8204 19.961C11.5137 19.9935 11.7342 20 13.5 20C15.2658 20 15.4863 19.9919 16.1796 19.961C16.8713 19.9285 17.3431 19.8191 17.7575 19.6587C18.1843 19.493 18.5478 19.2698 18.9091 18.9091C19.2698 18.5478 19.4935 18.186 19.6587 17.7575C19.8191 17.3431 19.929 16.8713 19.961 16.1796C19.9935 15.4863 20 15.2658 20 13.5C20 11.7342 19.9919 11.5137 19.961 10.8204C19.9285 10.1287 19.8191 9.65633 19.6587 9.2425C19.493 8.81512 19.2698 8.45221 18.9091 8.09092C18.5478 7.72962 18.186 7.50646 17.7575 7.34125C17.3431 7.18037 16.8713 7.07096 16.1796 7.039C15.4863 7.0065 15.2658 7 13.5 7ZM13.5131 8.01674C15.2995 8.01674 15.5125 8.02567 16.2181 8.05637C16.8706 8.08707 17.2248 8.19535 17.4601 8.288C17.7736 8.40912 17.9955 8.55424 18.2309 8.78811C18.4646 9.02253 18.6096 9.24523 18.7306 9.55891C18.8221 9.79445 18.9314 10.1489 18.961 10.8019C18.9927 11.5085 19 11.7206 19 13.5089C19 15.2972 18.9916 15.5099 18.9587 16.216C18.9247 16.869 18.816 17.2234 18.7239 17.459C18.599 17.7726 18.4568 17.9948 18.2225 18.2303C17.9888 18.4642 17.763 18.6093 17.4529 18.7304C17.2186 18.822 16.8589 18.9313 16.2064 18.9609C15.4958 18.9927 15.2867 19 13.4964 19C11.7055 19 11.4964 18.9916 10.7864 18.9587C10.1333 18.9246 9.77356 18.8158 9.53932 18.7237C9.22197 18.5987 9.0039 18.4564 8.77022 18.2219C8.53542 17.9881 8.38539 17.762 8.26827 17.4517C8.17624 17.2173 8.06804 16.8573 8.03402 16.2042L8.03268 16.1667C8.00861 15.4926 8 15.2517 8 13.5006C8 11.7511 8.00858 11.508 8.03259 10.8281L8.03402 10.7874C8.06804 10.1344 8.17624 9.77491 8.26827 9.54049C8.38539 9.22235 8.53542 9.00467 8.77022 8.76969C9.0039 8.53582 9.22197 8.38512 9.53932 8.26847C9.77356 8.17582 10.1255 8.06698 10.778 8.03349L10.8102 8.03235C11.4959 8.00812 11.7256 8 13.488 8L13.5131 8.01674ZM10 13.5C10 11.5677 11.566 10 13.5 10C15.4323 10 17 11.566 17 13.5C17 15.4323 15.434 17 13.5 17C11.5677 17 10 15.434 10 13.5ZM13 15C11.895 15 11 14.105 11 13C11 11.895 11.895 11 13 11C14.105 11 15 11.895 15 13C15 14.105 14.105 15 13 15ZM17 11C17.5514 11 18 10.5519 18 9.99965C18 9.44807 17.5507 8.99931 17 9C16.4486 9 16 9.44807 16 9.99965C16 10.5512 16.4479 11 17 11Z" fill="white"/>
</g>
</svg>
