<svg width="182" height="209" viewBox="0 0 182 209" fill="none" xmlns="http://www.w3.org/2000/svg">
<path fill-rule="evenodd" clip-rule="evenodd" d="M363.242 134.238C237.7 -25.3842 204.012 -31.9416 123.643 5.98462L0.439335 64.1386C168.314 277.555 180.865 212.93 363.242 134.238Z" fill="#13A538" fill-opacity="0.5"/>
</svg>
