<svg width="153" height="194" viewBox="0 0 153 194" fill="none" xmlns="http://www.w3.org/2000/svg">
<path fill-rule="evenodd" clip-rule="evenodd" d="M152.043 12.7439C-21.6595 -14.1327 -46.85 1.61108 -75.3125 73.0702L-118.936 182.624C113.321 218.544 83.1017 170.237 152.043 12.7439Z" fill="#FFD400"/>
</svg>
