<svg width="233" height="35" viewBox="0 0 233 35" fill="none" xmlns="http://www.w3.org/2000/svg">
<path d="M54.8163 14.0721C55.3923 14.1361 56.0003 14.2321 56.6403 14.3601C57.3123 14.4561 57.8883 14.6641 58.3683 14.9841L61.0563 17.7681V17.8161H61.0083L57.7443 17.2401C56.6883 17.1761 55.6323 17.1441 54.5763 17.1441C53.5523 17.1121 52.5123 17.1281 51.4563 17.1921C50.3043 18.3121 49.1363 19.4481 47.9523 20.6001C46.8003 21.7201 45.6483 22.8561 44.4963 24.0081L41.2323 27.7521C41.2003 27.7841 41.1363 27.7521 41.0403 27.6561C40.8803 27.5921 40.7043 27.4321 40.5123 27.1761C40.3203 26.9201 40.1443 26.6481 39.9843 26.3601C39.8243 26.0401 39.6803 25.7361 39.5523 25.4481C39.4563 25.1281 39.4243 24.8881 39.4563 24.7281C39.4563 24.6641 39.6003 24.4561 39.8883 24.1041C40.2083 23.7521 40.5923 23.3361 41.0403 22.8561C41.4883 22.3761 41.9683 21.8641 42.4803 21.3201C43.0243 20.7441 43.5363 20.2001 44.0163 19.6881C44.5283 19.1761 44.9763 18.7281 45.3603 18.3441C45.7443 17.9601 46.0163 17.7041 46.1763 17.5761C42.4003 18.0241 38.7523 18.7281 35.2323 19.6881C31.7123 20.6161 28.1923 21.7521 24.6723 23.0961L2.64026 34.7121C2.60826 34.7441 2.56026 34.7281 2.49626 34.6641C2.33626 34.6001 2.16026 34.4561 1.96826 34.2321C1.77626 33.9761 1.58426 33.7041 1.39226 33.4161C1.23226 33.0961 1.10426 32.7921 1.00826 32.5041C0.912258 32.1841 0.864258 31.9441 0.864258 31.7841C0.864258 31.7201 1.18426 31.4961 1.82426 31.1121C2.49626 30.7281 3.31226 30.2641 4.27226 29.7201C5.26426 29.1761 6.33626 28.6001 7.48826 27.9921C8.67226 27.3521 9.77626 26.7601 10.8003 26.2161C11.8563 25.6721 12.7523 25.2081 13.4883 24.8241C14.2243 24.4081 14.6723 24.1681 14.8323 24.1041C15.4403 23.7521 16.0483 23.4161 16.6563 23.0961C17.2643 22.7761 17.8883 22.4721 18.5283 22.1841C20.5443 21.1601 22.5283 20.1361 24.4803 19.1121C26.4323 18.0881 28.4003 17.0641 30.3843 16.0401C33.7763 14.2801 37.1683 12.5361 40.5603 10.8081C43.9523 9.08007 47.3603 7.35207 50.7843 5.62407C50.8803 5.59207 51.1683 5.44807 51.6483 5.19207C52.1283 4.93607 52.7043 4.63207 53.3763 4.28007C54.0803 3.92807 54.8163 3.56007 55.5843 3.17607C56.3843 2.76007 57.1203 2.39207 57.7923 2.07207C58.4643 1.72007 59.0243 1.43207 59.4723 1.20807C59.9203 0.98407 60.1603 0.87207 60.1923 0.87207C60.2883 0.87207 60.4803 0.96807 60.7683 1.16007C61.0563 1.35207 61.3603 1.57607 61.6803 1.83207C62.0003 2.05607 62.3043 2.28007 62.5923 2.50407C62.8803 2.69607 63.0723 2.82407 63.1683 2.88807C63.2323 2.95207 63.4243 3.11207 63.7443 3.36807C64.0643 3.62407 64.3683 3.91207 64.6563 4.23207C64.9763 4.52007 65.2323 4.80807 65.4243 5.09607C65.6483 5.35207 65.6963 5.52807 65.5683 5.62407C63.6803 6.93607 61.8403 8.29607 60.0483 9.70407C58.2883 11.0801 56.5443 12.5361 54.8163 14.0721ZM38.1123 15.9921C40.0003 15.5761 41.8883 15.2081 43.7763 14.8881C45.6963 14.5681 47.6163 14.3281 49.5363 14.1681C51.0723 12.6321 52.6243 11.0961 54.1923 9.56007C55.7603 8.02407 57.3283 6.50407 58.8963 5.00007L38.1123 15.9921Z" fill="black"/>
<path d="M58.1965 23.1921C58.4845 23.6081 58.7725 24.1041 59.0605 24.6801C59.3805 25.2561 59.6045 25.8161 59.7325 26.3601V26.4081L57.5245 28.6161C57.4605 28.6161 57.4125 28.6161 57.3805 28.6161C57.3805 28.5841 57.3645 28.5681 57.3325 28.5681C57.2045 28.5041 57.0445 28.3441 56.8525 28.0881C56.6605 27.8001 56.4845 27.4961 56.3245 27.1761C56.1645 26.8561 56.0205 26.5521 55.8925 26.2641C55.7965 25.9761 55.7485 25.7681 55.7485 25.6401C55.7805 25.4801 55.8925 25.3041 56.0845 25.1121C56.2765 24.9201 56.4205 24.7601 56.5165 24.6321C56.8045 24.3761 57.0765 24.1361 57.3325 23.9121C57.6205 23.6881 57.8925 23.4481 58.1485 23.1921H58.1965Z" fill="black"/>
<path d="M122.891 9.36807C122.731 9.24007 122.539 9.12807 122.315 9.03207C122.123 8.90407 121.947 8.79207 121.787 8.69607C121.179 8.44007 120.555 8.20007 119.915 7.97607C119.307 7.75207 118.683 7.56007 118.043 7.40007C115.259 6.69607 112.347 6.31207 109.307 6.24807C106.267 6.18407 103.339 6.26407 100.523 6.48807C96.9391 6.74407 93.4031 7.33607 89.9151 8.26407C86.4271 9.19207 83.0351 10.3761 79.7391 11.8161C77.5951 12.7441 75.5951 13.7521 73.7391 14.8401C73.3551 15.0641 72.9711 15.2881 72.5871 15.5121C72.2351 15.7361 71.8831 15.9761 71.5311 16.2321H71.4831L70.5231 14.7921C70.5871 14.6641 70.6991 14.5361 70.8591 14.4081C71.0511 14.2481 71.1951 14.1201 71.2911 14.0241C71.8991 13.5441 72.5231 13.0961 73.1631 12.6801C73.8351 12.2321 74.4911 11.8001 75.1311 11.3841C75.8671 10.9361 76.6031 10.5041 77.3391 10.0881C78.1071 9.67207 78.8751 9.28807 79.6431 8.93607C80.7631 8.39207 81.8991 7.89607 83.0511 7.44807C84.2351 6.96807 85.4351 6.52007 86.6511 6.10407C89.8511 5.01607 93.0991 4.15207 96.3951 3.51207C99.6911 2.87207 103.035 2.47207 106.427 2.31207C107.483 2.28007 108.619 2.26407 109.835 2.26407C111.083 2.23207 112.331 2.26407 113.579 2.36007C114.827 2.45607 116.043 2.61607 117.227 2.84007C118.443 3.06407 119.563 3.38407 120.587 3.80007C121.003 3.96007 121.403 4.16807 121.787 4.42407C122.203 4.64807 122.587 4.90407 122.939 5.19207C123.035 5.28807 123.131 5.40007 123.227 5.52807C123.323 5.65607 123.387 5.76807 123.419 5.86407L125.915 10.5201C124.571 12.7921 122.731 14.8401 120.395 16.6641C118.059 18.4561 115.419 20.0561 112.475 21.4641C109.531 22.8721 106.395 24.0881 103.067 25.1121C99.7391 26.1361 96.4271 26.9841 93.1311 27.6561C89.8351 28.3281 86.6511 28.8401 83.5791 29.1921C80.5071 29.5441 77.7551 29.7361 75.3231 29.7681C75.1631 29.7681 74.9391 29.8161 74.6511 29.9121C74.3951 29.9761 74.2351 29.9281 74.1711 29.7681L73.0671 27.1281C72.9391 27.0001 72.7791 26.8241 72.5871 26.6001C72.4271 26.3761 72.2671 26.1361 72.1071 25.8801C71.9791 25.5921 71.8671 25.3201 71.7711 25.0641C71.7071 24.8081 71.6751 24.5841 71.6751 24.3921C71.6751 24.2641 72.0271 23.8161 72.7311 23.0481C73.4671 22.2801 74.3631 21.3681 75.4191 20.3121C76.5071 19.2241 77.6751 18.0721 78.9231 16.8561C80.2031 15.6401 81.3871 14.5201 82.4751 13.4961C83.5631 12.4721 84.4911 11.6241 85.2591 10.9521C86.0271 10.2481 86.4431 9.89607 86.5071 9.89607C86.6031 9.89607 86.8591 9.99207 87.2751 10.1841C87.6911 10.3441 88.1071 10.5361 88.5231 10.7601C88.9711 10.9841 89.3391 11.2081 89.6271 11.4321C89.9471 11.6561 90.0431 11.8001 89.9151 11.8641C88.7311 12.6961 87.5631 13.5441 86.4111 14.4081C85.2591 15.2721 84.1711 16.2161 83.1471 17.2401C82.6991 17.6561 82.2671 18.0721 81.8511 18.4881C81.4671 18.9041 81.0511 19.3361 80.6031 19.7841C79.9951 20.4241 79.3551 21.0801 78.6831 21.7521C78.0431 22.3921 77.4031 23.0321 76.7631 23.6721L75.4671 25.1121C77.2911 25.1761 79.0991 25.1601 80.8911 25.0641C82.6831 24.9681 84.4911 24.8081 86.3151 24.5841C90.5391 24.1361 94.6351 23.4161 98.6031 22.4241C100.683 21.9121 102.859 21.2721 105.131 20.5041C107.435 19.7361 109.675 18.8241 111.851 17.7681C114.027 16.7121 116.075 15.4961 117.995 14.1201C119.915 12.7121 121.547 11.1281 122.891 9.36807Z" fill="black"/>
<path d="M124.993 24.2961L123.889 25.1601C123.537 25.3841 123.137 25.6241 122.689 25.8801C122.241 26.1361 121.777 26.3121 121.297 26.4081C120.849 26.5041 120.417 26.4881 120.001 26.3601C119.617 26.2001 119.313 25.8481 119.089 25.3041L118.273 23.2881C118.113 22.9041 118.065 22.5041 118.129 22.0881C118.225 21.6721 118.385 21.2721 118.609 20.8881C118.833 20.5041 119.089 20.1521 119.377 19.8321C119.697 19.4801 120.001 19.1761 120.289 18.9201C120.577 18.6641 120.913 18.3601 121.297 18.0081C121.713 17.6561 122.145 17.3361 122.593 17.0481C123.041 16.7601 123.489 16.5361 123.937 16.3761C124.417 16.1841 124.881 16.1201 125.329 16.1841C126.001 16.2801 126.609 16.6481 127.153 17.2881C127.697 17.9281 128.161 18.5201 128.545 19.0641C128.641 18.9681 128.833 18.7761 129.121 18.4881C129.409 18.1681 129.713 17.8481 130.033 17.5281C130.385 17.2081 130.705 16.9201 130.993 16.6641C131.313 16.4081 131.505 16.2801 131.569 16.2801C131.729 16.2801 131.937 16.4081 132.193 16.6641C132.481 16.8881 132.673 17.0481 132.769 17.1441C132.865 17.2401 133.041 17.4321 133.297 17.7201C133.553 18.0081 133.649 18.2321 133.585 18.3921C133.585 18.4561 133.569 18.5041 133.537 18.5361C133.473 18.6321 133.377 18.7441 133.249 18.8721C133.153 18.9681 133.057 19.0641 132.961 19.1601C132.385 19.6401 131.921 20.1201 131.569 20.6001L129.169 23.2401L128.065 24.5841C128.449 24.5201 128.897 24.3921 129.409 24.2001C129.921 23.9761 130.433 23.7361 130.945 23.4801C131.457 23.2241 131.953 22.9681 132.433 22.7121C132.913 22.4561 133.329 22.2321 133.681 22.0401C134.033 21.7841 134.241 21.7041 134.305 21.8001C134.369 21.8641 134.561 22.0401 134.881 22.3281C134.913 22.3921 134.881 22.4721 134.785 22.5681C134.625 22.7281 134.481 22.8241 134.353 22.8561C133.937 23.1761 133.393 23.5761 132.721 24.0561C132.049 24.5041 131.329 24.9361 130.561 25.3521C129.825 25.7361 129.089 26.0401 128.353 26.2641C127.617 26.4881 126.993 26.5041 126.481 26.3121C126.353 26.3121 126.209 26.2321 126.049 26.0721C125.921 25.9121 125.777 25.7361 125.617 25.5441C125.489 25.3201 125.361 25.0961 125.233 24.8721C125.137 24.6161 125.057 24.4241 124.993 24.2961ZM121.057 23.2881C120.737 23.7361 120.609 24.0561 120.673 24.2481C120.769 24.4401 120.945 24.5521 121.201 24.5841C121.457 24.6161 121.761 24.5841 122.113 24.4881C122.465 24.3921 122.753 24.2801 122.977 24.1521L123.985 23.5761C124.113 23.4801 124.433 23.1921 124.945 22.7121C125.489 22.2001 125.969 21.6721 126.385 21.1281C126.833 20.5521 127.105 20.0561 127.201 19.6401C127.329 19.1921 127.057 18.9841 126.385 19.0161C126.321 18.9841 126.273 18.9841 126.241 19.0161C126.241 19.0161 126.209 19.0161 126.145 19.0161C125.793 19.1441 125.329 19.4001 124.753 19.7841C124.209 20.1681 123.761 20.4881 123.409 20.7441C122.993 21.0961 122.577 21.4961 122.161 21.9441C121.777 22.3921 121.409 22.8401 121.057 23.2881Z" fill="black"/>
<path d="M142.786 20.6001C143.106 20.2801 143.33 20.0561 143.458 19.9281C143.554 19.8321 143.778 19.6081 144.13 19.2561C144.482 18.8721 144.866 18.4881 145.282 18.1041C145.698 17.6881 146.082 17.3201 146.434 17.0001C146.786 16.6801 147.01 16.5201 147.106 16.5201C147.266 16.5201 147.474 16.6481 147.73 16.9041C148.018 17.1281 148.21 17.2881 148.306 17.3841C148.434 17.5121 148.61 17.7361 148.834 18.0561C149.09 18.3441 149.186 18.5681 149.122 18.7281L149.026 18.8241C148.994 18.9521 148.914 19.0641 148.786 19.1601C148.69 19.2241 148.594 19.3041 148.498 19.4001L147.058 20.8401L144.754 23.5761L143.602 24.8721C143.986 24.8081 144.434 24.6801 144.946 24.4881C145.458 24.2641 145.97 24.0401 146.482 23.8161C147.026 23.5601 147.538 23.3041 148.018 23.0481C148.498 22.7601 148.898 22.5201 149.218 22.3281C149.57 22.1041 149.778 22.0241 149.842 22.0881C149.906 22.1521 150.082 22.3121 150.37 22.5681C150.37 22.6001 150.338 22.6961 150.274 22.8561L149.842 23.1441C149.426 23.4641 148.882 23.8641 148.21 24.3441C147.538 24.7921 146.834 25.2241 146.098 25.6401C145.362 26.0241 144.626 26.3281 143.89 26.5521C143.154 26.7761 142.53 26.7921 142.018 26.6001C141.794 26.6001 141.554 26.4241 141.298 26.0721C141.042 25.7201 140.882 25.4641 140.818 25.3041C140.69 25.1121 140.562 24.8721 140.434 24.5841C140.306 24.2641 140.242 23.9921 140.242 23.7681C140.242 23.6401 140.402 23.3841 140.722 23.0001C140.882 22.7761 141.058 22.5521 141.25 22.3281C141.026 22.2961 140.802 22.2801 140.578 22.2801C139.778 22.2801 138.978 22.2961 138.178 22.3281L134.482 26.5521C134.386 26.6481 134.274 26.6481 134.146 26.5521C134.018 26.4241 133.874 26.2801 133.714 26.1201C133.586 25.9601 133.474 25.8001 133.378 25.6401C133.25 25.4481 133.17 25.3361 133.138 25.3041C133.042 25.1121 132.93 24.8721 132.802 24.5841C132.642 24.2641 132.578 23.9921 132.61 23.7681C132.61 23.6401 132.754 23.3841 133.042 23.0001C133.33 22.6161 133.65 22.2161 134.002 21.8001C134.386 21.3841 134.738 21.0001 135.058 20.6481C135.41 20.2961 135.65 20.0561 135.778 19.9281C135.874 19.8321 136.098 19.6081 136.45 19.2561C136.802 18.8721 137.186 18.4881 137.602 18.1041C138.018 17.6881 138.402 17.3201 138.754 17.0001C139.106 16.6801 139.33 16.5201 139.426 16.5201C139.586 16.5201 139.794 16.6481 140.05 16.9041C140.338 17.1281 140.546 17.2881 140.674 17.3841C140.802 17.5441 140.946 17.7201 141.106 17.9121C141.266 18.1041 141.378 18.2961 141.442 18.4881L139.714 20.5041H140.29C140.642 20.5041 140.994 20.5201 141.346 20.5521C141.73 20.5521 142.13 20.5681 142.546 20.6001H142.786Z" fill="black"/>
<path d="M154.984 24.9201C154.664 25.1121 154.28 25.3361 153.832 25.5921C153.384 25.8481 152.92 26.0721 152.44 26.2641C151.96 26.4561 151.48 26.6001 151 26.6961C150.52 26.7601 150.088 26.7281 149.704 26.6001C149.48 26.6001 149.24 26.4241 148.984 26.0721C148.728 25.7201 148.568 25.4641 148.504 25.3041C148.376 25.1121 148.248 24.8721 148.12 24.5841C147.992 24.2641 147.944 23.9921 147.976 23.7681C147.976 23.6401 148.12 23.3841 148.408 23.0001C148.696 22.6161 149.016 22.2161 149.368 21.8001C149.752 21.3841 150.104 21.0001 150.424 20.6481C150.776 20.2961 151.016 20.0561 151.144 19.9281C151.24 19.8321 151.464 19.6081 151.816 19.2561C152.168 18.8721 152.552 18.4881 152.968 18.1041C153.384 17.6881 153.768 17.3201 154.12 17.0001C154.472 16.6801 154.696 16.5201 154.792 16.5201C154.952 16.5201 155.16 16.6481 155.416 16.9041C155.704 17.1281 155.896 17.2881 155.992 17.3841C156.12 17.5121 156.296 17.7361 156.52 18.0561C156.776 18.3441 156.872 18.5681 156.808 18.7281V18.8241C156.744 18.9521 156.648 19.0641 156.52 19.1601C156.392 19.2241 156.28 19.3041 156.184 19.4001C155.928 19.6561 155.688 19.8961 155.464 20.1201C155.24 20.3441 155.016 20.5841 154.792 20.8401L152.44 23.5761L151.288 24.8721C152.408 24.7121 153.352 24.3281 154.12 23.7201C154.888 23.0801 155.64 22.3601 156.376 21.5601C156.792 21.0481 157.288 20.5041 157.864 19.9281C157.96 19.8321 158.184 19.6081 158.536 19.2561C158.888 18.8721 159.256 18.4881 159.64 18.1041C160.056 17.6881 160.44 17.3201 160.792 17.0001C161.144 16.6801 161.368 16.5201 161.464 16.5201C161.624 16.5201 161.832 16.6481 162.088 16.9041C162.376 17.1281 162.568 17.2881 162.664 17.3841C162.76 17.5121 162.92 17.7361 163.144 18.0561C163.4 18.3441 163.496 18.5681 163.432 18.7281V18.8241C163.368 18.9521 163.272 19.0641 163.144 19.1601C163.048 19.2241 162.952 19.3041 162.856 19.4001C162.6 19.6561 162.36 19.8961 162.136 20.1201C161.912 20.3441 161.672 20.5841 161.416 20.8401L159.16 23.5761L158.008 24.8721C158.392 24.8081 158.84 24.6801 159.352 24.4881C159.864 24.2641 160.376 24.0401 160.888 23.8161C161.4 23.5601 161.88 23.3041 162.328 23.0481C162.808 22.7601 163.208 22.5201 163.528 22.3281C163.912 22.1041 164.136 22.0241 164.2 22.0881C164.264 22.1521 164.44 22.3121 164.728 22.5681C164.728 22.6001 164.696 22.6961 164.632 22.8561L164.2 23.1441C163.784 23.4641 163.24 23.8641 162.568 24.3441C161.928 24.7921 161.24 25.2241 160.504 25.6401C159.768 26.0241 159.032 26.3281 158.296 26.5521C157.56 26.7761 156.936 26.7921 156.424 26.6001C156.296 26.6001 156.152 26.5361 155.992 26.4081C155.864 26.2801 155.736 26.1361 155.608 25.9761C155.48 25.7841 155.352 25.5921 155.224 25.4001C155.128 25.2081 155.048 25.0481 154.984 24.9201Z" fill="black"/>
<path d="M170.709 24.9201C170.389 25.1121 170.005 25.3361 169.557 25.5921C169.109 25.8481 168.645 26.0721 168.165 26.2641C167.685 26.4561 167.205 26.6001 166.725 26.6961C166.245 26.7601 165.813 26.7281 165.429 26.6001C165.205 26.6001 164.965 26.4241 164.709 26.0721C164.453 25.7201 164.293 25.4641 164.229 25.3041C164.101 25.1121 163.973 24.8721 163.845 24.5841C163.717 24.2641 163.669 23.9921 163.701 23.7681C163.701 23.6401 163.845 23.3841 164.133 23.0001C164.421 22.6161 164.741 22.2161 165.093 21.8001C165.477 21.3841 165.877 20.9841 166.293 20.6001C166.709 20.1841 167.093 19.8161 167.445 19.4961C167.797 19.1761 168.021 19.0161 168.117 19.0161C168.277 19.0161 168.485 19.1441 168.741 19.4001C169.029 19.6241 169.221 19.7841 169.317 19.8801C169.445 20.0081 169.621 20.2321 169.845 20.5521C170.101 20.8401 170.197 21.0641 170.133 21.2241V21.3201C170.069 21.4481 169.973 21.5601 169.845 21.6561C169.717 21.7201 169.605 21.8001 169.509 21.8961C169.253 22.1521 168.805 22.7121 168.165 23.5761L167.013 24.8721C168.133 24.7121 169.077 24.3281 169.845 23.7201C170.613 23.0801 171.365 22.3601 172.101 21.5601C172.517 21.0481 173.013 20.5041 173.589 19.9281C173.685 19.8321 173.909 19.6081 174.261 19.2561C174.613 18.8721 174.981 18.4881 175.365 18.1041C175.781 17.6881 176.165 17.3201 176.517 17.0001C176.869 16.6801 177.093 16.5201 177.189 16.5201C177.349 16.5201 177.557 16.6481 177.813 16.9041C178.101 17.1281 178.293 17.2881 178.389 17.3841C178.485 17.5121 178.645 17.7361 178.869 18.0561C179.125 18.3441 179.221 18.5681 179.157 18.7281V18.8241C179.093 18.9521 178.997 19.0641 178.869 19.1601C178.773 19.2241 178.677 19.3041 178.581 19.4001C178.325 19.6561 178.085 19.8961 177.861 20.1201C177.637 20.3441 177.397 20.5841 177.141 20.8401L174.885 23.5761L173.733 24.8721C174.117 24.8081 174.565 24.6801 175.077 24.4881C175.589 24.2641 176.101 24.0401 176.613 23.8161C177.125 23.5601 177.605 23.3041 178.053 23.0481C178.533 22.7601 178.933 22.5201 179.253 22.3281C179.637 22.1041 179.861 22.0241 179.925 22.0881C179.989 22.1521 180.165 22.3121 180.453 22.5681C180.453 22.6001 180.421 22.6961 180.357 22.8561L179.925 23.1441C179.509 23.4641 178.965 23.8641 178.293 24.3441C177.653 24.7921 176.965 25.2241 176.229 25.6401C175.493 26.0241 174.757 26.3281 174.021 26.5521C173.285 26.7761 172.661 26.7921 172.149 26.6001C172.021 26.6001 171.877 26.5361 171.717 26.4081C171.589 26.2801 171.461 26.1361 171.333 25.9761C171.205 25.7841 171.077 25.5921 170.949 25.4001C170.853 25.2081 170.773 25.0481 170.709 24.9201Z" fill="black"/>
<path d="M184.275 22.0881C183.571 23.0481 183.171 23.7361 183.075 24.1521C183.011 24.5681 183.123 24.8241 183.411 24.9201C183.731 24.9841 184.179 24.9201 184.755 24.7281C185.331 24.5361 185.939 24.2961 186.579 24.0081C187.219 23.6881 187.827 23.3681 188.403 23.0481C188.979 22.7281 189.411 22.4881 189.699 22.3281C190.019 22.1041 190.211 22.0401 190.275 22.1361C190.339 22.2001 190.515 22.3441 190.803 22.5681C190.835 22.6001 190.803 22.6961 190.707 22.8561L190.275 23.1441C189.795 23.5281 189.299 23.8961 188.787 24.2481C188.275 24.6001 187.747 24.9361 187.203 25.2561C186.883 25.4481 186.467 25.6721 185.955 25.9281C185.475 26.1841 184.963 26.3921 184.419 26.5521C183.875 26.6801 183.347 26.7281 182.835 26.6961C182.323 26.6321 181.923 26.3761 181.635 25.9281L180.483 24.2481C180.195 23.8321 180.099 23.3681 180.195 22.8561C180.323 22.3121 180.531 21.7841 180.819 21.2721C181.107 20.7601 181.443 20.2801 181.827 19.8321C182.211 19.3841 182.547 19.0321 182.835 18.7761C183.251 18.3601 183.683 17.9761 184.131 17.6241C184.579 17.2401 185.043 16.9201 185.523 16.6641C185.875 16.5041 186.259 16.3601 186.675 16.2321C187.123 16.0721 187.523 16.0561 187.875 16.1841L190.275 18.8241C190.339 18.8881 190.355 18.9841 190.323 19.1121C190.291 19.2081 190.227 19.3201 190.131 19.4481C190.035 19.5761 189.923 19.6881 189.795 19.7841C189.699 19.8801 189.635 19.9441 189.603 19.9761C189.123 20.5521 188.467 21.0161 187.635 21.3681C186.835 21.6881 186.067 21.8801 185.331 21.9441L184.275 22.0881ZM188.403 18.9681C188.371 18.8721 188.275 18.7921 188.115 18.7281C187.859 18.6321 187.571 18.6641 187.251 18.8241C186.963 18.9521 186.659 19.1441 186.339 19.4001C186.051 19.6561 185.779 19.9281 185.523 20.2161C185.267 20.5041 185.075 20.7441 184.947 20.9361C185.555 20.8081 186.211 20.5841 186.915 20.2641C187.619 19.9441 188.115 19.5121 188.403 18.9681Z" fill="black"/>
<path d="M199.501 20.6001C199.821 20.2801 200.045 20.0561 200.173 19.9281C200.269 19.8321 200.493 19.6081 200.845 19.2561C201.197 18.8721 201.581 18.4881 201.997 18.1041C202.413 17.6881 202.797 17.3201 203.149 17.0001C203.501 16.6801 203.725 16.5201 203.821 16.5201C203.981 16.5201 204.189 16.6481 204.445 16.9041C204.733 17.1281 204.925 17.2881 205.021 17.3841C205.149 17.5121 205.325 17.7361 205.549 18.0561C205.805 18.3441 205.901 18.5681 205.837 18.7281L205.741 18.8241C205.709 18.9521 205.629 19.0641 205.501 19.1601C205.405 19.2241 205.309 19.3041 205.213 19.4001L203.773 20.8401L201.469 23.5761L200.317 24.8721C200.701 24.8081 201.149 24.6801 201.661 24.4881C202.173 24.2641 202.685 24.0401 203.197 23.8161C203.741 23.5601 204.253 23.3041 204.733 23.0481C205.213 22.7601 205.613 22.5201 205.933 22.3281C206.285 22.1041 206.493 22.0241 206.557 22.0881C206.621 22.1521 206.797 22.3121 207.085 22.5681C207.085 22.6001 207.053 22.6961 206.989 22.8561L206.557 23.1441C206.141 23.4641 205.597 23.8641 204.925 24.3441C204.253 24.7921 203.549 25.2241 202.813 25.6401C202.077 26.0241 201.341 26.3281 200.605 26.5521C199.869 26.7761 199.245 26.7921 198.733 26.6001C198.509 26.6001 198.269 26.4241 198.013 26.0721C197.757 25.7201 197.597 25.4641 197.533 25.3041C197.405 25.1121 197.277 24.8721 197.149 24.5841C197.021 24.2641 196.957 23.9921 196.957 23.7681C196.957 23.6401 197.117 23.3841 197.437 23.0001C197.597 22.7761 197.773 22.5521 197.965 22.3281C197.741 22.2961 197.517 22.2801 197.293 22.2801C196.493 22.2801 195.693 22.2961 194.893 22.3281L191.197 26.5521C191.101 26.6481 190.989 26.6481 190.861 26.5521C190.733 26.4241 190.589 26.2801 190.429 26.1201C190.301 25.9601 190.189 25.8001 190.093 25.6401C189.965 25.4481 189.885 25.3361 189.853 25.3041C189.757 25.1121 189.645 24.8721 189.517 24.5841C189.357 24.2641 189.293 23.9921 189.325 23.7681C189.325 23.6401 189.469 23.3841 189.757 23.0001C190.045 22.6161 190.365 22.2161 190.717 21.8001C191.101 21.3841 191.453 21.0001 191.773 20.6481C192.125 20.2961 192.365 20.0561 192.493 19.9281C192.589 19.8321 192.813 19.6081 193.165 19.2561C193.517 18.8721 193.901 18.4881 194.317 18.1041C194.733 17.6881 195.117 17.3201 195.469 17.0001C195.821 16.6801 196.045 16.5201 196.141 16.5201C196.301 16.5201 196.509 16.6481 196.765 16.9041C197.053 17.1281 197.261 17.2881 197.389 17.3841C197.517 17.5441 197.661 17.7201 197.821 17.9121C197.981 18.1041 198.093 18.2961 198.157 18.4881L196.429 20.5041H197.005C197.357 20.5041 197.709 20.5201 198.061 20.5521C198.445 20.5521 198.845 20.5681 199.261 20.6001H199.501Z" fill="black"/>
<path d="M210.835 20.4081L217.507 16.7601C217.667 16.6961 217.827 16.6481 217.987 16.6161C218.179 16.5841 218.323 16.6481 218.419 16.8081L219.859 18.6801V18.7281L213.667 21.0801L215.395 24.5841C216.099 24.3601 216.691 24.1201 217.171 23.8641C217.683 23.6081 218.179 23.3521 218.659 23.0961C219.139 22.8401 219.603 22.5841 220.051 22.3281C220.403 22.1041 220.611 22.0241 220.675 22.0881C220.739 22.1521 220.915 22.3121 221.203 22.5681C221.203 22.6001 221.171 22.6961 221.107 22.8561L220.675 23.1441C220.003 23.6561 219.363 24.1521 218.755 24.6321C218.147 25.0801 217.507 25.4801 216.835 25.8321C216.195 26.1841 215.507 26.4401 214.771 26.6001C214.035 26.7601 213.219 26.7921 212.323 26.6961C212.227 26.7601 212.099 26.6801 211.939 26.4561C211.811 26.2321 211.683 25.9761 211.555 25.6881C211.427 25.4001 211.315 25.1281 211.219 24.8721C211.123 24.6161 211.059 24.4561 211.027 24.3921C210.771 23.7841 210.531 23.1121 210.307 22.3761L208.867 23.0001H208.819L205.555 26.6481C205.523 26.6801 205.475 26.6641 205.411 26.6001C205.091 26.4721 204.787 26.1361 204.499 25.5921C204.179 25.0481 204.035 24.6001 204.067 24.2481C204.067 24.1201 204.451 23.6401 205.219 22.8081C205.987 21.9761 206.947 20.9681 208.099 19.7841C209.251 18.6001 210.499 17.3361 211.843 15.9921C213.219 14.6481 214.211 13.6721 214.819 13.0641C215.427 12.4241 215.763 12.1041 215.827 12.1041C215.923 12.1041 216.067 12.2321 216.259 12.4881C216.483 12.7441 216.675 13.0321 216.835 13.3521C217.027 13.6721 217.155 13.9921 217.219 14.3121C217.315 14.6001 217.315 14.7761 217.219 14.8401C216.227 15.6401 215.507 16.2641 215.059 16.7121L210.835 20.4081Z" fill="black"/>
<path d="M228.391 23.7201C228.743 23.6881 229.079 23.6241 229.399 23.5281C229.719 23.4321 230.023 23.3041 230.311 23.1441C230.567 22.9841 230.807 22.8401 231.031 22.7121C231.287 22.5841 231.527 22.4561 231.751 22.3281C232.103 22.1041 232.311 22.0241 232.375 22.0881C232.439 22.1521 232.615 22.3121 232.903 22.5681C232.967 22.6321 232.935 22.7281 232.807 22.8561L232.375 23.1441C232.023 23.4321 231.639 23.7361 231.223 24.0561C230.839 24.3441 230.423 24.6001 229.975 24.8241C229.559 25.0161 229.111 25.1441 228.631 25.2081C228.151 25.2721 227.671 25.1921 227.191 24.9681C226.903 25.2241 226.551 25.5121 226.135 25.8321C225.751 26.1521 225.335 26.4081 224.887 26.6001C224.471 26.7601 224.039 26.8081 223.591 26.7441C223.175 26.6801 222.807 26.4081 222.487 25.9281L221.335 24.2481C221.047 23.8321 220.951 23.3681 221.047 22.8561C221.175 22.3121 221.383 21.7841 221.671 21.2721C221.959 20.7601 222.295 20.2801 222.679 19.8321C223.063 19.3841 223.399 19.0321 223.687 18.7761C224.103 18.3601 224.535 17.9761 224.983 17.6241C225.431 17.2401 225.911 16.9201 226.423 16.6641C226.775 16.5041 227.159 16.3601 227.575 16.2321C227.991 16.0721 228.375 16.0561 228.727 16.1841H228.775L231.175 18.8241C231.303 18.9841 231.271 19.3041 231.079 19.7841C230.887 20.2321 230.615 20.7281 230.263 21.2721C229.943 21.7841 229.591 22.2801 229.207 22.7601C228.855 23.2401 228.583 23.5601 228.391 23.7201ZM226.999 23.3841C227.095 23.2881 227.271 23.0801 227.527 22.7601C227.783 22.4401 228.039 22.0881 228.295 21.7041C228.551 21.2881 228.791 20.8721 229.015 20.4561C229.271 20.0401 229.431 19.6881 229.495 19.4001C229.559 19.0801 229.511 18.8561 229.351 18.7281C229.191 18.5681 228.871 18.5521 228.391 18.6801C228.263 18.8721 228.055 19.1921 227.767 19.6401C227.511 20.0561 227.271 20.5041 227.047 20.9841C226.855 21.4321 226.727 21.8801 226.663 22.3281C226.599 22.7761 226.711 23.1281 226.999 23.3841ZM226.135 24.2001C225.751 23.7201 225.559 23.1921 225.559 22.6161C225.559 22.0401 225.639 21.4801 225.799 20.9361C225.479 21.3841 225.175 21.8481 224.887 22.3281C224.599 22.7761 224.343 23.2401 224.119 23.7201C224.055 23.8481 223.975 24.0241 223.879 24.2481C223.815 24.4721 223.863 24.6481 224.023 24.7761C224.215 24.9361 224.487 24.9681 224.839 24.8721C225.191 24.7441 225.447 24.6321 225.607 24.5361C225.703 24.4721 225.799 24.4241 225.895 24.3921C225.991 24.3281 226.071 24.2641 226.135 24.2001Z" fill="black"/>
</svg>
