<svg width="18" height="15" viewBox="0 0 18 15" fill="none" xmlns="http://www.w3.org/2000/svg">
<path d="M11 3.99902V-0.000976562L18 6.99902L11 13.999V9.899C6 9.899 2.5 11.499 0 14.999C0.999996 9.99896 4 4.99901 11 3.99902Z" fill="#222222"/>
</svg>
